
ec1b9788-0184-4cf0-ab31-289ea2a83954|Spanija|polupansion|autobus|Majorka|06/12/2021 00:00:00|06/29/2021 00:00:00|1|12:12|1212|asfas|fafsaf|asfasfas||True|False|
64d36004-d06e-4121-8bb9-d6f11ca9738a|Spanija|punpansion|autobus|Majorka|06/28/2021 00:00:00|07/08/2021 00:00:00|2|12:30|50|Putovanje do Majorke|Od Beograda do Majorke|Majorka.jpg|9432fd3f-7328-400e-ad64-956915832303|False|False|a8ee02be-e777-445f-85a1-bbd4a66bbb94
868652c5-9e20-441b-9097-a5e9abf46d65|Egipat|allinclusive|avion|Hurgada|07/14/2021 00:00:00|06/24/2021 00:00:00|1|17:30|30|Putovanje do Hurgade|Od Novog Sada do Hurgade|Hurgada.jpg|f54c1d8e-775b-4c86-85b8-cfa5e7cebe19|False|False|a8ee02be-e777-445f-85a1-bbd4a66bbb94
e4e71d3e-7c83-4747-bae5-e680c4f7e07f|fafasfa|polupansion|autobus|fasfas|06/04/2021 00:00:00|06/12/2021 00:00:00|1|12:12|122|fasfa|fsafa|fasfas|ff954b02-c1cc-4f7e-a58e-462aec68b73d|True|False|247becf0-e66b-4b27-a35c-1d3527a29de1
73b400f9-af02-4575-84f7-102fa50531d5|Turska|allinclusive|avion|Antalija|07/28/2021 00:00:00|08/06/2021 00:00:00|3|14:30|30|Putovanje do Antalije|Od Nisa do Antalije|Antalija.jpg|ff954b02-c1cc-4f7e-a58e-462aec68b73d|False|False|a8ee02be-e777-445f-85a1-bbd4a66bbb94
25f01ce8-60c6-4434-a3c4-355254f22fbe|asd|polupansion|autobus|1|12/21/1212 00:00:00|02/12/0121 00:00:00|1|12:12|2112|1212|2112|1212||True|False|
87ce586d-883b-4497-bf8d-021c49ab5be2|ASD|polupansion|autobus|fasfas|02/12/0121 00:00:00|02/11/0221 00:00:00|1|12:12|2112|121221|121221|vsasa||True|False|
4773d09c-f051-4cc4-8e58-425cc780ddc5|fasfasfas|polupansion|autobus|122121|02/12/0121 00:00:00|12/12/0012 00:00:00|1|21:21|122121|121212|211221|211212||True|False|
b5dbe22e-afaa-454a-8e67-4389a241a775|sfasf|polupansion|autobus|2121|02/11/1212 00:00:00|02/11/0212 00:00:00|1|21:12|212112|2121|2121|2112||True|False|