
0e1b568e-b189-4dff-99fa-f4b88e291cb3|undefined|asd|3|False|True|False|False|True|sfasfgas
a53465af-600f-4ba0-96e2-e05b245ffc07|vila|afasfas|2121|True|False|True|True|True|asfaf
9432fd3f-7328-400e-ad64-956915832303|hotel|Hotel Majorka|5|True|True|True|True|False|aacf8961-a078-44ac-8152-ff57e8a182e8
f54c1d8e-775b-4c86-85b8-cfa5e7cebe19|hotel|Hotel Hurgada|4|True|False|True|True|False|519a3686-ca3a-4cf6-ba02-835a530af7c4
ff954b02-c1cc-4f7e-a58e-462aec68b73d|hotel|Hotel Antalija|6|True|True|True|True|False|b6059d3b-3c00-4b71-a239-6d856337256f
baaf7073-574d-412a-9a50-880374913654|hotel|a|1212|True|True|True|True|True|
9c89bcf2-fd18-4e9d-86a9-8614a9e4db0c|hotel|a123|1212|True|True|True|True|False|