
b405495f-0f1b-4ae6-9cff-e11fe6dc3741|fasf|121212|True|211212|False|12312|False
9f1205f5-f91d-4820-830d-72d803e00918||12|True|10|False|312312|False
aacf8961-a078-44ac-8152-ff57e8a182e8|Soba br 10|5|True|100|False|51cb7b2c-02aa-45a0-bfb9-80f7eb30abb7|False
519a3686-ca3a-4cf6-ba02-835a530af7c4|Soba br. 15|3|False|50|False|51cb7b2c-02aa-45a0-bfb9-80f7eb30abb7|False
b6059d3b-3c00-4b71-a239-6d856337256f|Soba br. 20|10|True|1000|False|51cb7b2c-02aa-45a0-bfb9-80f7eb30abb7|False
07434e6b-b0fb-4d6d-9fce-003b635623e0|Soba br. 32|5|True|300|False|6f41762f-7373-4f28-bc62-ac9f8533378a|False
37258413-cb1a-4bb8-9fe6-941ae79452c2|Soba br. 40|2|False|150|False|6f41762f-7373-4f28-bc62-ac9f8533378a|False
90ad4218-44b2-43fc-a9a3-5125dc3c5a25|Soba br. 12|5|True|250|False|93b4ae53-0c03-4911-b73f-2b55b67d5c2e|True
0a41055b-595a-40da-be4c-ed3416143feb|Soba br. 100|10|True|500|False|93b4ae53-0c03-4911-b73f-2b55b67d5c2e|True
72428d63-4036-476b-95d5-f74fae67be88|Soba br. 35|2|False|100|False|93b4ae53-0c03-4911-b73f-2b55b67d5c2e|False
9eb33c89-8974-4417-a0fb-814797f5cd94|Soba br 10|10|True|100|False|f54c1d8e-775b-4c86-85b8-cfa5e7cebe19|False
a7f1f71b-6cca-4c96-aff4-acda69f3633d|safas|1212|True|2121|False|f54c1d8e-775b-4c86-85b8-cfa5e7cebe19|False
36f82e97-99a3-4a2d-a161-2b795bd226b8|Soba br. 12|5|True|30|False|9432fd3f-7328-400e-ad64-956915832303|False
3f237fd0-b6b1-4183-846a-11897f766988|Soba br. 12|3|False|100|False|ff954b02-c1cc-4f7e-a58e-462aec68b73d|False
4d91cf51-268e-47f5-96af-607514604e5b|Soba br. 40|10|True|400|False|ff954b02-c1cc-4f7e-a58e-462aec68b73d|False